%YAML 1.1
%TAG !u! tag:unity3d.com,2011:
--- !u!114 &11400000
MonoBehaviour:
  m_ObjectHideFlags: 0
  m_CorrespondingSourceObject: {fileID: 0}
  m_PrefabInstance: {fileID: 0}
  m_PrefabAsset: {fileID: 0}
  m_GameObject: {fileID: 0}
  m_Enabled: 1
  m_EditorHideFlags: 0
  m_Script: {fileID: 11500000, guid: 1771a11d07eeaca48abd4a4fa858c6cc, type: 3}
  m_Name: Enemy1
  m_EditorClassIdentifier: 
  Damage: 1
  Health: 10
  Velocity: 2
  ColliderAttackRange: 1
  ColliderFollowRange: 4
  ColliderPatrolRange: 4.5
  Animator: {fileID: 9100000, guid: d02df489f5a29a04aab59a4993b268fb, type: 2}
