%YAML 1.1
%TAG !u! tag:unity3d.com,2011:
--- !u!114 &11400000
MonoBehaviour:
  m_ObjectHideFlags: 0
  m_CorrespondingSourceObject: {fileID: 0}
  m_PrefabInstance: {fileID: 0}
  m_PrefabAsset: {fileID: 0}
  m_GameObject: {fileID: 0}
  m_Enabled: 1
  m_EditorHideFlags: 0
  m_Script: {fileID: 11500000, guid: 902618e6044654443a55cbfec82d8287, type: 3}
  m_Name: ItemDb
  m_EditorClassIdentifier: 
  items:
  - {fileID: 11400000, guid: a2657f87b5f466449a6cabbdc629fd58, type: 2}
  - {fileID: 11400000, guid: eea85ece59fb5ef409f901e86187d5ba, type: 2}
  - {fileID: 11400000, guid: 54b96e4c46136c948b24f7fc71ef0415, type: 2}
  - {fileID: 11400000, guid: ac4a19408b02b3d42aa02591d01aa557, type: 2}
  - {fileID: 11400000, guid: 173c022aa7c974b4891171df54d7d5da, type: 2}
