%YAML 1.1
%TAG !u! tag:unity3d.com,2011:
--- !u!74 &7400000
AnimationClip:
  m_ObjectHideFlags: 0
  m_CorrespondingSourceObject: {fileID: 0}
  m_PrefabInstance: {fileID: 0}
  m_PrefabAsset: {fileID: 0}
  m_Name: Move_Right
  serializedVersion: 7
  m_Legacy: 0
  m_Compressed: 0
  m_UseHighQualityCurve: 1
  m_RotationCurves: []
  m_CompressedRotationCurves: []
  m_EulerCurves: []
  m_PositionCurves: []
  m_ScaleCurves: []
  m_FloatCurves:
  - serializedVersion: 2
    curve:
      serializedVersion: 2
      m_Curve:
      - serializedVersion: 3
        time: 0
        value: -0.2
        inSlope: 0
        outSlope: 0
        tangentMode: 136
        weightedMode: 0
        inWeight: 0
        outWeight: 0
      m_PreInfinity: 2
      m_PostInfinity: 2
      m_RotationOrder: 4
    attribute: m_Offset.x
    path: 
    classID: 58
    script: {fileID: 0}
    flags: 0
  m_PPtrCurves:
  - serializedVersion: 2
    curve:
    - time: 0
      value: {fileID: -581796057, guid: 39d7b7cb3dd3f0c4284423e418f9bbc5, type: 3}
    - time: 0.11666667
      value: {fileID: 1034094662, guid: 39d7b7cb3dd3f0c4284423e418f9bbc5, type: 3}
    - time: 0.23333333
      value: {fileID: -278172183, guid: 39d7b7cb3dd3f0c4284423e418f9bbc5, type: 3}
    - time: 0.35
      value: {fileID: -1625281936, guid: 39d7b7cb3dd3f0c4284423e418f9bbc5, type: 3}
    - time: 0.48333332
      value: {fileID: -1509396790, guid: 39d7b7cb3dd3f0c4284423e418f9bbc5, type: 3}
    - time: 0.6
      value: {fileID: -1885159523, guid: 39d7b7cb3dd3f0c4284423e418f9bbc5, type: 3}
    - time: 0.71666664
      value: {fileID: -1651401045, guid: 39d7b7cb3dd3f0c4284423e418f9bbc5, type: 3}
    - time: 0.8333333
      value: {fileID: -552867795, guid: 39d7b7cb3dd3f0c4284423e418f9bbc5, type: 3}
    attribute: m_Sprite
    path: 
    classID: 212
    script: {fileID: 0}
    flags: 2
  m_SampleRate: 60
  m_WrapMode: 0
  m_Bounds:
    m_Center: {x: 0, y: 0, z: 0}
    m_Extent: {x: 0, y: 0, z: 0}
  m_ClipBindingConstant:
    genericBindings:
    - serializedVersion: 2
      path: 0
      attribute: 0
      script: {fileID: 0}
      typeID: 212
      customType: 23
      isPPtrCurve: 1
      isIntCurve: 0
      isSerializeReferenceCurve: 0
    - serializedVersion: 2
      path: 0
      attribute: 413499720
      script: {fileID: 0}
      typeID: 58
      customType: 0
      isPPtrCurve: 0
      isIntCurve: 0
      isSerializeReferenceCurve: 0
    pptrCurveMapping:
    - {fileID: -581796057, guid: 39d7b7cb3dd3f0c4284423e418f9bbc5, type: 3}
    - {fileID: 1034094662, guid: 39d7b7cb3dd3f0c4284423e418f9bbc5, type: 3}
    - {fileID: -278172183, guid: 39d7b7cb3dd3f0c4284423e418f9bbc5, type: 3}
    - {fileID: -1625281936, guid: 39d7b7cb3dd3f0c4284423e418f9bbc5, type: 3}
    - {fileID: -1509396790, guid: 39d7b7cb3dd3f0c4284423e418f9bbc5, type: 3}
    - {fileID: -1885159523, guid: 39d7b7cb3dd3f0c4284423e418f9bbc5, type: 3}
    - {fileID: -1651401045, guid: 39d7b7cb3dd3f0c4284423e418f9bbc5, type: 3}
    - {fileID: -552867795, guid: 39d7b7cb3dd3f0c4284423e418f9bbc5, type: 3}
  m_AnimationClipSettings:
    serializedVersion: 2
    m_AdditiveReferencePoseClip: {fileID: 0}
    m_AdditiveReferencePoseTime: 0
    m_StartTime: 0
    m_StopTime: 0.84999996
    m_OrientationOffsetY: 0
    m_Level: 0
    m_CycleOffset: 0
    m_HasAdditiveReferencePose: 0
    m_LoopTime: 1
    m_LoopBlend: 0
    m_LoopBlendOrientation: 0
    m_LoopBlendPositionY: 0
    m_LoopBlendPositionXZ: 0
    m_KeepOriginalOrientation: 0
    m_KeepOriginalPositionY: 1
    m_KeepOriginalPositionXZ: 0
    m_HeightFromFeet: 0
    m_Mirror: 0
  m_EditorCurves:
  - serializedVersion: 2
    curve:
      serializedVersion: 2
      m_Curve:
      - serializedVersion: 3
        time: 0
        value: -0.2
        inSlope: 0
        outSlope: 0
        tangentMode: 136
        weightedMode: 0
        inWeight: 0
        outWeight: 0
      m_PreInfinity: 2
      m_PostInfinity: 2
      m_RotationOrder: 4
    attribute: m_Offset.x
    path: 
    classID: 58
    script: {fileID: 0}
    flags: 0
  m_EulerEditorCurves: []
  m_HasGenericRootTransform: 0
  m_HasMotionFloatCurves: 0
  m_Events: []
