%YAML 1.1
%TAG !u! tag:unity3d.com,2011:
--- !u!1045 &1
EditorBuildSettings:
  m_ObjectHideFlags: 0
  serializedVersion: 2
  m_Scenes:
  - enabled: 1
    path: Assets/Scenes/SampleScene.unity
    guid: 2cda990e2423bbf4892e6590ba056729
  - enabled: 1
    path: Assets/Scenes/StartMenu.unity
    guid: a70da5923ca052a47bee0cca0ccd5bd4
  - enabled: 1
    path: Assets/Scenes/FinalScene.unity
    guid: bca12e38d3586034e8a71d1907ba17d2
  m_configObjects: {}
