%YAML 1.1
%TAG !u! tag:unity3d.com,2011:
--- !u!114 &11400000
MonoBehaviour:
  m_ObjectHideFlags: 0
  m_CorrespondingSourceObject: {fileID: 0}
  m_PrefabInstance: {fileID: 0}
  m_PrefabAsset: {fileID: 0}
  m_GameObject: {fileID: 0}
  m_Enabled: 1
  m_EditorHideFlags: 0
  m_Script: {fileID: 11500000, guid: 555b900ebd9589640ab541088854704e, type: 3}
  m_Name: FireballAtack
  m_EditorClassIdentifier: 
  Atack: 1
  CoolDownTime: 7
  AtackImage: {fileID: 21300000, guid: e76b94d21699f1d4eba3bc906bc719dc, type: 3}
  DrainedStamina: 0
  DrainedMana: 3
  DrainedHealth: 0
  velocity: 1
  Damage: 3
