%YAML 1.1
%TAG !u! tag:unity3d.com,2011:
--- !u!114 &11400000
MonoBehaviour:
  m_ObjectHideFlags: 0
  m_CorrespondingSourceObject: {fileID: 0}
  m_PrefabInstance: {fileID: 0}
  m_PrefabAsset: {fileID: 0}
  m_GameObject: {fileID: 0}
  m_Enabled: 1
  m_EditorHideFlags: 0
  m_Script: {fileID: 11500000, guid: 555b900ebd9589640ab541088854704e, type: 3}
  m_Name: PoweredMeleAtack
  m_EditorClassIdentifier: 
  Atack: 0
  CoolDownTime: 3
  AtackImage: {fileID: -1726826724, guid: 6307c85a03859ee4cadc15acd88d5069, type: 3}
  DrainedStamina: 1
  DrainedMana: 0
  DrainedHealth: 0
  velocity: 0
  Damage: 5
